{
  "database": {
    "rules": "database.rules.json"
  },
	"hosting": {
    "public": "build",
    "rewrites": [
      {
        "source": "**",
        "destination": "/index.html"
      }
    ]
  }
}
